{
  "version": 1,
  "type": "doc",
  "content": [
    {
      "type": "bulletList",
      "content": [
        {
          "type": "listItem",
          "content": [
            {
              "type": "paragraph",
              "content": [
                {
                  "type": "inlineCard",
                  "attrs": {
                    "url": "https://inlineCardTestUrl"
                  }
                },
                {
                  "type": "text",
                  "text": "  "
                }
              ]
            }
          ]
        }
      ]
    },
    {
      "type": "paragraph",
      "content": []
    }
  ]
}